[
    {
        "id": 0,
        "name": "Arctic Fox",
        "description": "Lorem ipsum dolor sit amet, consectetur adipiscing elit. Phasellus blandit erat neque, non vestibulum nunc molestie a. Aliquam hendrerit odio bibendum maximus aliquam.",
        "image": "arctic_fox.gif",
        "price": 850
    },
    {
        "id": 1,
        "name": "Himalayan Pika",
        "description": "Maecenas purus risus, eleifend nec dolor non, dignissim sollicitudin ipsum. Praesent tempor est urna, non sodales nulla hendrerit at. Sed laoreet fringilla libero, in aliquet nulla auctor vitae.",
        "image": "himalayan_pika.gif",
        "price": 75
    },
    {
        "id": 2,
        "name": "Lynx",
        "description": "Curabitur sed elementum sem. Duis id enim pulvinar, dictum ligula sit amet, luctus dui. In volutpat mi felis, a condimentum eros pharetra eu. Donec efficitur orci gravida libero auctor venenatis.",
        "image": "lynx.gif",
        "price": 675
    },
    {
        "id": 3,
        "name": "Pallas Cat",
        "description": "Fusce et nisi elementum, lacinia orci at, posuere massa. Sed rutrum est sapien, nec consectetur elit bibendum sit amet. Vestibulum pulvinar tincidunt pulvinar. Aenean vitae lacus luctus, venenatis quam rhoncus, molestie diam.",
        "image": "pallas_cat.gif",
        "price": 350
    },
    {
        "id": 4,
        "name": "Pika",
        "description": "Aliquam luctus lacus et neque ultricies imperdiet. Morbi ut vestibulum metus, ac tempor quam. Vivamus scelerisque dui et massa laoreet gravida.",
        "image": "pika.gif",
        "price": 65
    },
    {
        "id": 5,
        "name": "Quokka",
        "description": "Orci varius natoque penatibus et magnis dis parturient montes, nascetur ridiculus mus. Aenean ac nulla varius, consectetur mauris in, pellentesque ex. Nam imperdiet arcu a erat facilisis pellentesque.",
        "image": "quokka.gif",
        "price": 190
    },
    {
        "id": 6,
        "name": "Red Panda",
        "description": "Donec lectus nunc, pharetra non sapien in, cursus lobortis est. Vestibulum tincidunt suscipit lectus a facilisis. Aliquam interdum eu erat in tincidunt. Donec ullamcorper blandit nulla id ornare.",
        "image": "red_panda.gif",
        "price": 1580
    },
    {
        "id": 7,
        "name": "Wombat",
        "description": "Donec accumsan accumsan mollis. Cras neque metus, eleifend id purus venenatis, blandit rutrum lectus. Quisque eleifend vestibulum mollis. Donec commodo sapien id lorem fringilla viverra.",
        "image": "wombat.gif",
        "price": 300
    },
    {
        "id": 8,
        "name": "T-Rex",
        "description": "Highly dangerous. For expert pet lovers only! Class aptent taciti sociosqu ad litora torquent per conubia nostra, per inceptos himenaeos. Ut nec mollis odio. Pellentesque eget diam et neque rhoncus dapibus. Aliquam lacinia feugiat faucibus.",
        "image": "t-rex.png",
        "price": 25000
    }
]